{"data":[{"id":"5b2ca061-b5b7-40fa-9941-269c17c52413","genus":"Abelia (syn Linnaea)","species":"spp.","subspeciesVarieties":"& hybrids","commonName":"Abelia","urls":["https://en.wikipedia.org/wiki/Abelia"],"notes":null,"lastUpdated":"2025-05-17T01:46:30.677Z","primaryImage":null}],"meta":{"pagination":{"total":1361,"limit":1,"offset":0,"hasMore":true}}}