{"data":[{"id":"164e9559-c929-471e-94fc-d927f7f4c428","name":"A. Ganteaume","url":"https://hal.archives-ouvertes.fr/hal-00941751/document","address":null,"phone":null,"region":"Europe","targetLocation":"South Eastern France","topicsAddressed":"Flammability of seven ornamental shrubs ","attribution":"A. Ganteaume, M. Jappiot, C. Lampin, M. Guijarro, C. Hernando. 2013. Flammability of some ornamental species in wildland–urban interfaces in southeastern France: laboratory assessment at particle level. Environmental Management, 2013, 52, p. 467 - p. 480.  10.1007/s00267-013-0067-z .  hal-00941751 \n\nA. Ganteaume, M. Jappiot, C. Lampin. 2012. Assessing the flammability of surface fuels beneath ornamental vegetation in wildland-urban interfaces in Provence (South-eastern France). International Journal of Wildland Fire, CISRO Publishing. 22(3), 333-42.","notes":"Cited & some results are integrated.","refCode":"Gantaeume","fileLink":"https://drive.google.com/file/d/1Ri3HKoj35b20rxqlZNSvt6as2_HKzY4t/view?usp=drive_link"},{"id":"41d6203b-d76d-46f5-813f-00e4c76a2ab8","name":"AC Batista","url":"https://dl-dev.uc.pt/explore?bitstream_id=11055345&handle=10316.2/44603&provider=iiif-image","address":null,"phone":null,"region":"South America","targetLocation":"Brazil","topicsAddressed":"Flammability and combustibility of some shrubs","attribution":"Batista, AC. Flammability and combustibility of potential species for use as fuel breaks","notes":"Consulted.","refCode":"Batista","fileLink":null},{"id":"509c7587-abf7-4ca8-821d-0d0758cc51e0","name":"Anaheim Fire & Rescue","url":"https://www.anaheim.net/DocumentCenter/View/26964/Fire-Resistive-Plant-Species","address":null,"phone":null,"region":"California","targetLocation":"Anaheim","topicsAddressed":"Fire resistant plant list w/out placement advice","attribution":"Orange County, Recommended Acceptable Fire Resistive Plant Species; 2/6/2018; Anaheim Fire & Rescue, 201 S. Anaheim Blvd., Suite 300, Anaheim, CA 92805","notes":"Integrated. It appears that the list was derived from other sources in California. OFCA is more useful and recent.","refCode":"Anaheim","fileLink":"https://drive.google.com/file/d/13FTbWxYR03GyM_pr6FDTDkPlPs6_ttLy/view?usp=sharing"},{"id":"c6484dd7-37b1-4c35-9f69-09cb01381bdf","name":"Annie's Annuals","url":"https://www.anniesannuals.com/","address":null,"phone":null,"region":"California","targetLocation":"Retailer","topicsAddressed":"Fire, drought, deer resistant plants","attribution":"Several lists can be accessed via \"Shop by Features\"","notes":null,"refCode":"Annies","fileLink":null},{"id":"26a7f6b1-4590-42d6-b149-fd78780989d4","name":"Anthony Tesselaar Plants","url":"https://tesselaar.com/firescape-your-landscape/","address":null,"phone":null,"region":"Australia","targetLocation":"Retailer","topicsAddressed":"Short discussion of fire hazards and a recommend plants list","attribution":"Only attribution information found is the URL.","notes":"Not integrated","refCode":"Tesselaar","fileLink":null},{"id":"6469ac1e-c64e-4563-bab7-1cea580ab108","name":"Army Medican Libraray","url":"https://collections.nlm.nih.gov/ocr/nlm:nlmuid-26410250R-bk","address":null,"phone":null,"region":"United States ","targetLocation":"Army","topicsAddressed":null,"attribution":"Army medical library","notes":null,"refCode":"N/A","fileLink":null},{"id":"14d9d20e-7552-4223-9041-68fd283d17da","name":"Australia, Jarrahdale","url":"https://landcaresj.com.au/wp-content/uploads/2017/04/Local-Low-Flammability-Native-Species.pdf","address":null,"phone":null,"region":"Australia","targetLocation":"Shire of Serpentine Jarrahdale, Perth","topicsAddressed":"Flammability of native species with placement advice","attribution":"Indicative List of Low Flammability Plants – All local native species – Shire of Serpentine Jarrahdale – May 2010","notes":null,"refCode":"Aust1","fileLink":"https://drive.google.com/file/d/1e20zlpc62kLS75XwvCYCQ627phAbw5Se/view?usp=drive_link"},{"id":"d856e02b-993c-4c89-9267-df867dc6ea9d","name":"Australia, Perth","url":"https://workpower.com.au/guide-fire-resistant-plants/","address":null,"phone":null,"region":"Australia","targetLocation":"Western Australia","topicsAddressed":"Fire resistant plants link ","attribution":"A Western Australia social services website that has a page that provides fire resistant landscaping advice.","notes":"Westringia fruticosa ‘Mundi’ is listed in this nursery website as being \"fire retardant\". It links to the Aust2 reference which I could not access in full.","refCode":"WorkPower","fileLink":null},{"id":"1d745dba-cc66-4def-b6a5-3494bcd37f9e","name":"Australia, Victoria","url":"https://apsvic.org.au/fire-resistant-and-retardant-plants/","address":null,"phone":null,"region":"Australia","targetLocation":"Southern Australia","topicsAddressed":"Fire resistant (Plants that will not burn in the face of continued flame) and & fire retardant plants (Plants that will not burn in the first wave of a bushfire, but may burn once dried out)","attribution":"Australian Plants Society (Victoria); Mr Neil Marriott,  PO Box 107, Stawell Vic 3380","notes":"The list is incomplete so it was not used as a source. ","refCode":"Aust2","fileLink":null},{"id":"b2e7de17-9605-4a6e-8a61-7af5436e3611","name":"Bee City Talent","url":null,"address":null,"phone":null,"region":"Oregon","targetLocation":"Rogue Valley","topicsAddressed":"Pollinators","attribution":"Talent Oregon Chapter","notes":"Invited to contribute but have not as of the date of this version of the database.","refCode":"Bee City USA","fileLink":null},{"id":"5716c784-887f-4739-a818-56c352a73984","name":"CalFire","url":"https://readyforwildfire.org/prepare-for-wildfire/fire-smart-landscaping/","address":null,"phone":null,"region":"California","targetLocation":"Statewide","topicsAddressed":"Fire Smart landscaping, plant placement & spacing","attribution":"CalFire","notes":null,"refCode":"CalFire","fileLink":null},{"id":"4ec7c84c-82dd-4911-bb3c-68e1eb1c10ce","name":"California Gardens","url":"http://www.californiagardens.com/Lists/Drought_Tolerant_List.htm","address":null,"phone":null,"region":"California","targetLocation":"Retailer","topicsAddressed":"Drought tolerant plants","attribution":"Drought tolerant plants list, California Gardens, Inc","notes":null,"refCode":"CalGardens","fileLink":null},{"id":"c89964b7-9c20-46a0-baf8-e670a353762a","name":"California Native Plant Society","url":"https://www.calscape.org/","address":null,"phone":null,"region":"California","targetLocation":"Statewide","topicsAddressed":"California native plants & their attributes","attribution":"California Native Plant Society","notes":"Integrated. Excellent website with lots of information on plant attributes, pollinators, etc.","refCode":"CalScape","fileLink":null},{"id":"d093f6a7-72df-4cb4-b551-e453c72473f0","name":"California Native Plant Society San Diego","url":"http://firesafesdcounty.org/wp-content/uploads/2017/05/Comprehensive-Fire-Resistant-Plant-List.pdf","address":null,"phone":null,"region":"California ","targetLocation":"San Diego County","topicsAddressed":"Fire resistant natives of San Diego","attribution":"Several contributors. Sponsored by the California Native Plant Society, San Diego Chapter","notes":"Consulted. Placement advice is listed by climate zone which I did not find useful. One attachment identifies \"pyrophytic plants\". Another \"waterwise plants.\"","refCode":"CNPSSD","fileLink":"https://drive.google.com/file/d/120N-1JXJNsSQhN_gYihnlG_EcRYIjyXL/view?usp=sharing"},{"id":"c50afa61-3984-4650-9106-2defcb8b4059","name":"Center for Invasive Species and Ecosystem Health","url":"https://www.invasive.org/species/weeds.cfm","address":null,"phone":null,"region":"Georgia","targetLocation":"University","topicsAddressed":"Invasive and exotic weeds","attribution":"links to invasive plant lists","notes":null,"refCode":"InvasiveOrg","fileLink":null},{"id":"32870c87-a60b-48be-9a02-bd2662a46c41","name":"City of Ashland","url":"https://www.ashland.or.us/SIB/files/FIRE/Firewise/Firewise_Plant_List_2020.pdf","address":null,"phone":null,"region":"Oregon","targetLocation":"Ashland","topicsAddressed":"Firewise & Prohibited Flammable Plant Lists","attribution":"Firewise Plants list for Ashland Oregon, City of Ashland, 2018","notes":"Many issues with the list so the list is under review for revisions.","refCode":"Ashland","fileLink":null},{"id":"d5484c84-8eb8-43f5-8b3c-1013f2d94c6a","name":"City of Ashland","url":"https://www.ashlandsaveswater.org/plants.php","address":null,"phone":null,"region":"Oregon","targetLocation":"Ashland","topicsAddressed":"Firewise & Prohibited Flammable Plant Lists","attribution":"Firewise Plants list for Ashland Oregon, City of Ashland, 2018","notes":null,"refCode":"Ashland","fileLink":null},{"id":"ac72f4de-c72c-4482-aeaa-218238595bb9","name":"Cochise County Master Gardeners","url":"https://cales.arizona.edu/cochise/mg/garden-basics-zones-and-double-duty-plants","address":null,"phone":null,"region":"Arizona","targetLocation":"University of Arizona","topicsAddressed":"Flammable plants, spacing","attribution":"Cochisa County Master Gardeners","notes":"To be evaluated","refCode":"Uariz","fileLink":null},{"id":"bda13bfc-e65d-4568-bbc5-df0043a36e72","name":"Colorado State University Extension","url":"https://extension.colostate.edu/topic-areas/natural-resources/firewise-plant-materials-6-305/","address":null,"phone":null,"region":"Colorado","targetLocation":null,"topicsAddressed":"No placement advice and many of the plants are on other lists","attribution":"Colorado State University Extension","notes":null,"refCode":"ColoStateU","fileLink":null},{"id":"8a999feb-c923-46b1-9300-a53503f1c7d3","name":"County of Los Angeles Fire Department","url":"https://fire.lacounty.gov/wp-content/uploads/2020/05/Plant-Selection-Guidelines.pdf","address":null,"phone":null,"region":"California","targetLocation":"Los Angeles County","topicsAddressed":"\"Firewise\" plant list & County \"approved\" fire resistant plants list by planting zone","attribution":"County of Los Angeles Fire Department Fuels Management Guidelines, July 2011. Updated plant list 05/2022.","notes":null,"refCode":"OFCA","fileLink":"https://drive.google.com/file/d/1njmET6HghYW1cHbsfw8CReWwDsmDOUkp/view?usp=drive_link"},{"id":"796f9d0b-1984-4ccc-b343-f138888486f8","name":"Diablo Fire Safe Council","url":"https://diablofiresafe.org/guide-to-plants","address":null,"phone":null,"region":"California","targetLocation":"Diablo Fire Safe Council","topicsAddressed":"Listed favorable and unfavorable ratings for fire  resistance","attribution":"Plants with a Favorable Fire Performace Rating; Diablo California Fire Safe Council. An on-line reference.","notes":"Integrated","refCode":"Diablo","fileLink":null},{"id":"c89a69a3-7a3f-4669-993c-c07990ee44ec","name":"Escondido Fire","url":"https://www.escondido.gov/DocumentCenter/View/4332/Suggested-Landscaping-Plants-PDF","address":null,"phone":null,"region":"California","targetLocation":"Escondido","topicsAddressed":"drought & fire resistant plant list with tree distance advice","attribution":"Suggested Drought Tolerant, Fire Resistive Landscaping Plants ","notes":"Integrated","refCode":"Escondido","fileLink":"https://drive.google.com/file/d/1RMG7B5toeHWslfE2vo9qtbaAslQe3v55/view?usp=sharing"},{"id":"64578deb-590c-4f57-9b25-37f195d88a96","name":"Federal Noxious Weed list","url":"https://www.aphis.usda.gov/plant_health/plant_pest_info/weeds/downloads/weedlist.pdf","address":null,"phone":null,"region":"United States","targetLocation":"United States","topicsAddressed":"Federal Noxious Weed list","attribution":"Federal Noxious Weed List effective December 10, 2010","notes":"Consulted.","refCode":"FNW","fileLink":"https://drive.google.com/file/d/1pPQJOUqfp055QDLEybDNleU2Lc4sauAH/view?usp=drive_link"},{"id":"8fcf5e61-2f79-43b1-8f55-a799c6d8a638","name":"Fine Gardening","url":"https://www.finegardening.com/article/firescaping-plants-help-protect-property-fire","address":null,"phone":null,"region":"California","targetLocation":"Statewide","topicsAddressed":"Native plants and some \"bad\" plants","attribution":"Adriene Edwards and Rachel Schleiger. 2023. Firescaping: Plants That Help Protect Your Property From Fire; A Manual for Readiness in Wildfire Country. Timber Press, Portland, OR.","notes":"Great general fire safe gardening and native plant care reference. Integrated a majority of the plants listed. Because placement and spacing best practices are not recommended on a plant by plant basis, and several highly flammable plants are listed it was impossible to spatially integrate based on hazard ignition zones.","refCode":"FineGarden","fileLink":"https://drive.google.com/file/d/1s3IpRj8KCl_IdgXNwuii-qaGlltuPDr2/view?usp=drive_link"},{"id":"45fb3645-f89b-496e-aec5-381fd6999755","name":"Fire Performance Plant Selector","url":"https://fire.sref.info/firewise-zones","address":null,"phone":null,"region":"Eastern US","targetLocation":null,"topicsAddressed":"Fire resistant plants & spacing database","attribution":"Fire Performance Plants Selector; possible date of this link is 2010 based on the credits page","notes":"Integrated into this database though not all plants evaluated have been included in this database.","refCode":"FPS","fileLink":null},{"id":"ac05b32b-06cc-486c-a6e2-b9c2bdb601fe","name":"Fire Safe Marin","url":"https://firesafemarin.org/create-a-fire-smart-yard/","address":null,"phone":null,"region":"California","targetLocation":"Marin County","topicsAddressed":"Flammable plants, spacing, landscape design, drought tolerant plants, mulches","attribution":"Fire Safe Marin. 2019. Fire-Resistant Plants Common to Marin County, CA. A non-profit organization support by the Marin Wildfire Prevention Authority, Cal Fire Foundation, and others","notes":"Great website available for all topics pertaining to developing fire adapted buildings and landscapes!","refCode":"Fire Safe Marin","fileLink":null},{"id":"34cc2d7a-f098-4106-8e27-20d7dbcd82f7","name":"Friends of Corte Madera Creek","url":"https://friendsofcortemaderacreek.org/cn/WhatNottoPlant.pdf","address":null,"phone":null,"region":"California","targetLocation":"Marin County","topicsAddressed":"Plants that are very problematic & their California native alternatives which are not low flammability.","attribution":"What Not to Plant by Laura Lovett. 2018. Friends of Corte Madera Creek Watershed Friends of Corte Madera Creek Watershed P.O. Box 415, Lark-\nspur, California 94977 ","notes":"Cited a few statements about some problem plants. Leymus condensatus is mislabled as Elymus condensatus.","refCode":"CorteMadera","fileLink":"https://drive.google.com/file/d/1W-DqgP_2BCHQP2BL9oLhDBSPxdHc5aA1/view?usp=sharing"},{"id":"a274f684-39d6-4103-84d1-0eadd98719df","name":"GardenSoft ","url":"https://gardensoft.com/","address":null,"phone":null,"region":"Oregon","targetLocation":"Ashland","topicsAddressed":"Plants on Ashland Oregon's Waterwise Plants List","attribution":null,"notes":"GardenSoft is under contract with the City of Ashland, Oregon and other municipalities in other states to provide interactive Internet access to plant lists. In Ashland it serves as the City's official \"Waterwise\" plant list. Many of the plants are misidentified as  \"waterwise\" and \"fire resistant\". A fair number are noxious weeds. Use this resource with caution.  ","refCode":"GardenSoft","fileLink":null},{"id":"001aeede-72fd-41fa-b37a-7a342e6ece41","name":"Grass Roots Ecology","url":"https://www.grassrootsecology.org/fire-resistant-habitat-at-home","address":null,"phone":null,"region":"California","targetLocation":"SF Bay Area","topicsAddressed":"Fire Smart Gardens; drought tolerant natives","attribution":"Grass Roots Ecology","notes":"To be evaluated - Good general source of fire reluctant landscaping that was extracted from Fire Safe Marin","refCode":"GRE","fileLink":null},{"id":"dc858b85-3803-4e8e-8d6a-de2f21226b7f","name":"Grassroots Ecology","url":"https://static1.squarespace.com/static/57488264f85082748c7c80db/t/5e9a24fd66bc693a2ee03c03/1587160318843/Fire+Smart+Plants+for+SF+Bay+Area.pdf","address":null,"phone":null,"region":"California","targetLocation":"San Francisco Bay Area","topicsAddressed":"Local native plants","attribution":"Local Native Plants for Fire Safe Gardens in the S.F. Bay Area. Grassroots Ecology Weblink","notes":null,"refCode":"SFBay","fileLink":"https://drive.google.com/file/d/1ay4kk_VpdY3QcbiW43xW2ikEdhZNBW2Y/view?usp=drive_link"},{"id":"872a5354-238e-4921-b649-0cc515b55bae","name":"Hachette Book Group","url":"https://sites.google.com/view/firescapingyourhome/book-overview","address":null,"phone":null,"region":"West Coast States (CA, OR, WA)","targetLocation":"Northern Sierra Nevada (Chico)","topicsAddressed":"Home hardening, native plants, wildland health","attribution":"Firescaping Your Home - A Manual for Readiness in Wildfire Country; Adrienne Edwards and Rachel Scheliger. Timber Press. Portland, Oregon. 2023. ISBN978-1-64326-135-5","notes":"Integrated.","refCode":"Firescaping","fileLink":null},{"id":"92eb8fa9-9e22-4e3f-ae9a-8e0b18bf5852","name":"Idaho Database","url":"https://idahofirewise.org/wp-content/uploads/2017/04/FireXResistanceXofXPlantsXMasterXDatabase.pdf","address":null,"phone":null,"region":"Idaho","targetLocation":"Data Base","topicsAddressed":"Flammability testing lab","attribution":null,"notes":"Integrated a lot of the plants and info about them.","refCode":"Idaho Database","fileLink":null},{"id":"80c236c8-84e1-4483-a033-b8a598c47b3d","name":"Idaho Firewise","url":"https://idahofirewise.org/wp-content/uploads/2020/07/Firewise-Landscaping.pdf","address":null,"phone":null,"region":"Idaho","targetLocation":"Landscaping","topicsAddressed":"Characteristics of flammable plant","attribution":"Powerpoint presentation titled \"Firewise Landscaping\"  Prepared by Brett Van Paepeghem for Idaho Firewise.","notes":"A powerpoint slide deck with information on plant flammability and some plants are included.","refCode":"Idaho Firewise","fileLink":"https://drive.google.com/file/d/16KDUF4OIGuB_QmfUh4Ou-OheEfjsQbe0/view?usp=drive_link"},{"id":"3b8e2642-8671-4af0-a1f2-f738b6644ecb","name":"Insurance Institute for Business & Home Safety","url":"https://ibhs.org/wildfirereadyhomedefensiblespace/","address":null,"phone":null,"region":"United States","targetLocation":"Insurance","topicsAddressed":"HIZ & suitable plants for each zone","attribution":"Fire-resistant Landscaping for your Home; Choosing the right fire-resistant plantsand materials can beautify your suburban home and also reduce your wildfire risk. August 2021. Insurance Institute for Business and Home Safety. (7 pp)","notes":"Integrated listed species into the database. The url address seems to have been deleted as of January 2024.","refCode":"IIBHS & IBHS","fileLink":null},{"id":"a1b83235-2d27-4fd8-aacb-53e153b40dc6","name":"Internet Search","url":null,"address":null,"phone":null,"region":null,"targetLocation":null,"topicsAddressed":"Various plant attributes","attribution":"General internet research","notes":"Generic source for web-based research without specific citation","refCode":"Internet Search","fileLink":null},{"id":"d71e51c5-6a9f-4b6e-9d2b-9af99f9c80d3","name":"Internet Search","url":null,"address":null,"phone":null,"region":null,"targetLocation":null,"topicsAddressed":null,"attribution":null,"notes":null,"refCode":"Internet Search","fileLink":null},{"id":"65379016-19b8-4a77-a952-f77a641cd802","name":"Invasive Plants Council","url":"https://www.cal-ipc.org/plants/profiles/","address":null,"phone":null,"region":"California","targetLocation":null,"topicsAddressed":"Invasive plants in California","attribution":"California Invasive Plants Council; 1442-A Walnut St. #462, Berkeley, CA","notes":"Consulted. I tried to record when this source was used by making a \"note\" in the invasives claim for a species.","refCode":"Cal-IPC","fileLink":null},{"id":"5ecbe5c2-4289-4a3a-b971-b55c4829ea45","name":"Kensington Fire","url":"https://www.kensingtonfire.org/drought-tolerant-fire-resistant-and-highly-flammable-plants","address":null,"phone":null,"region":"California","targetLocation":"Kensington ","topicsAddressed":"Drought & fire resistant, & highly flammable plants lists","attribution":"Kensington Fire District, Kensington California (Copyright 2022)","notes":"Integrated into the database though not all plants/species are included.","refCode":"Kensington ","fileLink":"https://drive.google.com/file/d/1aioQdvLVbhKNtnPs1eu3oSID1kumGDga/view?usp=drive_link"},{"id":"ab9ac818-0238-4be1-9f23-a4031348ec37","name":"Kern River Vally Fire Safe Council","url":"https://static1.squarespace.com/static/622acf32745a741efa100d7c/t/668307ad32c6393b7a167b10/1719863214242/FINAL+KFSC%2BFirewise-Planting-Guide-1.pdf","address":null,"phone":null,"region":"California","targetLocation":"Kern River Valley","topicsAddressed":"Fire resistant plants with low to moderate water need","attribution":"KERN RIVER VALLEY FIRE SAFE COUNCIL Fire Resistant Landscape Plants","notes":null,"refCode":"Kern","fileLink":"https://drive.google.com/file/d/1aqjO9Wds-rX7AwU-XCdjJRy5TRkxJBR1/view?usp=drive_link"},{"id":"91eb4a12-2a9d-402e-b3e2-b044ce556e09","name":"Las Pilitas Nursery","url":"https://www.laspilitas.com/easy/deerfire.htm","address":null,"phone":null,"region":"California","targetLocation":"Central -- Paso Robles, San Luis Obispo, & San Joaquin Valley","topicsAddressed":"Identified deer resistant native plants and horticultural attributes.","attribution":"Las Pilitas Nursery.","notes":"The deer list has impressive details so it has been integrated.","refCode":"Pilitas","fileLink":null},{"id":"a498a460-ddc8-4613-91d7-d6f7294d8a64","name":"Las Pilitas Nursery","url":"https://www.laspilitas.com/plants/plant_lists/California_native_plant_a.htm","address":null,"phone":null,"region":"California","targetLocation":"Central -- Paso Robles, San Luis Obispo, & San Joaquin Valley","topicsAddressed":"Native plants","attribution":"Las Pilitas Nursery.","notes":null,"refCode":"Pilitas","fileLink":null},{"id":"fdfc1168-c636-4722-ab86-20dc88f86e3a","name":"Las Pilitas Nursery","url":"https://www.laspilitas.com/classes/fire_burn_times.html","address":null,"phone":null,"region":"California","targetLocation":"Central -- Paso Robles, San Luis Obispo, & San Joaquin Valley","topicsAddressed":"Tested flammability of native California plants & created a rating system for wildfire risk in home landscaping.","attribution":"Wilson, Bert. 2014. Leaf Burn Times of California native plants (& Several Non-Native Plants). Las Pilitas Nursery.","notes":"Integrated the leaf ignition time information but it is of questionable value due to lack of standardized controls and scientific oversight. ","refCode":"Pilitas","fileLink":null},{"id":"a8c5216c-6020-416e-bb0b-e51bf77b57fc","name":"Maine Department of Agriculture, Conservation & Forestry","url":"https://www.maine.gov/dacf/mfs/forest_protection/firewise/fire_resistant_plant_list.html","address":null,"phone":null,"region":"Maine","targetLocation":null,"topicsAddressed":"fire-resistant plants list","attribution":"Maine Department of Agriculture, Conservation & Forestry","notes":null,"refCode":"Maine","fileLink":"https://drive.google.com/file/d/1BYnR2UmCI5_XiXYdIVQNtpbZRfmJHfhi/view?usp=drive_link"},{"id":"ab28cabe-065a-4de3-ab50-57741965fd95","name":"Maryland Department of Natural Resources","url":"https://dnr.maryland.gov/forests/Documents/fire/Firewise_Plants.pdf","address":null,"phone":null,"region":"Maryland ","targetLocation":null,"topicsAddressed":"Firewise plants list, mulch ignitability","attribution":"Firewise Maryland; Firewise Landscaping List for Maryland","notes":null,"refCode":"Mary","fileLink":"https://drive.google.com/file/d/1C21QhRatsDxuysDLjD8T696-qwg_rbgf/view?usp=drive_link"},{"id":"48aebeb6-35a5-4f59-96bf-fce5ab009c4a","name":"Maryland Department of Natural Resources","url":"https://dnr.maryland.gov/forests/Documents/fire/Firewise_PlantFlammabilityKey.pdf","address":null,"phone":null,"region":"Maryland ","targetLocation":null,"topicsAddressed":"Plant Flammability Key","attribution":"Firewise Maryland; Plant Flammability Key","notes":null,"refCode":"Mary","fileLink":"https://drive.google.com/file/d/1ALieWHUl8GsiVa7g4Lm_lTGJc0MT0NiX/view?usp=drive_link"},{"id":"dd2ce7b5-527e-43d7-89c8-d092efa59cc9","name":"MasterGardeners","url":"https://www.marinij.com/2013/10/04/master-gardeners-choosing-options-to-invasive-plants/","address":null,"phone":null,"region":"California","targetLocation":"Marin County ","topicsAddressed":"Invasive plants list","attribution":null,"notes":null,"refCode":"Master Gardeners","fileLink":"https://drive.google.com/file/d/1OXyUeQ2-EqsxKNKyTTlM0KdZx2SePLfg/view?usp=drive_link"},{"id":"e7cbdf82-ed7a-46a1-8eff-f1a7a7cde553","name":"Medford Wildfire Mitigation Steering Committee","url":"City of Medford Wildfire Mitigation Steering Committee Microsoft TEAMS site","address":null,"phone":null,"region":"Oregon","targetLocation":"Medford","topicsAddressed":"Fire-resistant plant list (draft)","attribution":"Medford Wildfire Mitigation Steering Committee draft list, November 2021","notes":"Draft claims were included in an early version of this database. I no longer consider this list to have value.","refCode":"Medford","fileLink":null},{"id":"ba5a4611-bd5c-48db-99c7-0be30e2d2185","name":"Mercury Insurance","url":"https://www.mercuryinsurance.com/resources/weather/plants-and-fire-protection.html","address":null,"phone":null,"region":"United States","targetLocation":"Insurance","topicsAddressed":"Fire resistant plants for erosion control, hedges/screening, lawn alternatives","attribution":"Insurance company advice","notes":"Consulted.","refCode":"Mercury","fileLink":"https://drive.google.com/file/d/17TCxMVTKADOP5VehUhdxJBOB49D-_PIf/view?usp=drive_link"},{"id":"7a4e7da1-fd0a-4194-bffe-3b8cc06405de","name":"Mostly Native Nursery","url":"https://www.mostlynatives.com/plant-characteristics/deer-resistant","address":null,"phone":null,"region":"California","targetLocation":"Point Reyes","topicsAddressed":"deer resistant plants; water requirements & other attributes","attribution":"Mostly Natives Nursery, 54 B Street, Unit D; Point Reyes Station, CA 94956 Phone: (415) 663-8835","notes":"Excellent interactive website where you can select plants by attributes desired.","refCode":"MostlyNative","fileLink":null},{"id":"4d6f91f2-77af-4f5c-a294-251b3af5f1db","name":"NBC San Diego","url":"https://www.nbcsandiego.com/news/local/fire-resistant-plants-wildfires-consumer-bob/1975505/","address":null,"phone":null,"region":"California","targetLocation":"San Diego County","topicsAddressed":"Fire reluctant plants list","attribution":"TV station","notes":"To be evaluated","refCode":"NBCSD","fileLink":null}],"meta":{"pagination":{"total":106,"limit":50,"offset":0,"hasMore":true}}}